com\med\med\controller\ActivityEndpoint.class
com\med\med\utils\MedicationDto.class
com\med\med\exceptions\GenericException.class
com\med\med\models\User.class
com\med\med\models\data\UserDao.class
io\spring\guides\gs_producing_web_service\GetCountryResponse.class
com\med\med\confing\WebSecurity$UserServiceImpl.class
com\med\med\models\data\UserActivityDao.class
com\ProjectApplication.class
io\spring\guides\gs_producing_web_service\package-info.class
io\spring\guides\gs_producing_web_service\Currency.class
com\med\med\utils\SeedExecutor.class
com\med\med\models\Medication.class
com\med\med\controller\UserController.class
io\spring\guides\gs_producing_web_service\ObjectFactory.class
io\spring\guides\gs_producing_web_service\Activity.class
com\med\med\models\Role.class
com\med\med\confing\WebServiceConfig.class
io\spring\guides\gs_producing_web_service\GetActivityResponse.class
com\med\med\confing\WebSecurity$1.class
com\med\med\models\data\MedicationDao.class
com\med\med\utils\ActivityReader.class
com\med\med\controller\CountryEndpoint.class
com\med\med\confing\WebSecurity$UserDetailsImpl.class
io\spring\guides\gs_producing_web_service\Country.class
com\med\med\confing\WebSecurity.class
com\med\med\services\MedService.class
com\med\med\models\UserActivity.class
com\med\med\utils\RegisterDto.class
io\spring\guides\gs_producing_web_service\GetCountryRequest.class
com\med\med\repos\CountryRepository.class
com\med\med\services\ActivityService.class
com\med\med\controller\MedicationController.class
io\spring\guides\gs_producing_web_service\GetActivityRequest.class
